<svg xmlns="http://www.w3.org/2000/svg" xmlns:xlink="http://www.w3.org/1999/xlink" width="20" height="20" viewBox="0 0 20 20">
  <defs>
    <clipPath id="clip-path">
      <rect id="Rectangle_178" data-name="Rectangle 178" width="20" height="20" transform="translate(1075 497)" fill="#919eab" stroke="#707070" stroke-width="1"/>
    </clipPath>
  </defs>
  <g id="Mask_Group_4" data-name="Mask Group 4" transform="translate(-1075 -497)" clip-path="url(#clip-path)">
    <g id="log-file-format" transform="translate(1075 497)">
      <path id="Path_497" data-name="Path 497" d="M17.735,7.154h-.48V4.836a.336.336,0,0,0,0-.044.385.385,0,0,0-.093-.254L13.3.134l0,0A.379.379,0,0,0,13.22.066L13.195.051a.409.409,0,0,0-.077-.033L13.1.011A.39.39,0,0,0,13.006,0H3.529a.785.785,0,0,0-.784.784V7.154h-.48A1.121,1.121,0,0,0,1.144,8.275V14.1a1.121,1.121,0,0,0,1.121,1.121h.48v3.991A.785.785,0,0,0,3.529,20H16.471a.785.785,0,0,0,.784-.784V15.225h.48A1.121,1.121,0,0,0,18.856,14.1V8.275A1.121,1.121,0,0,0,17.735,7.154ZM3.529.784h9.085V4.8a.392.392,0,0,0,.392.392h3.464V7.154H3.529Zm8.064,10.284a2.534,2.534,0,0,1-2.61,2.8,2.478,2.478,0,0,1-2.5-2.7A2.573,2.573,0,0,1,9.069,8.379,2.477,2.477,0,0,1,11.593,11.068ZM3,13.781V8.466H4.2v4.306H6.317V13.78H3ZM16.471,19H3.529V15.225H16.471V19Zm.352-5.467a5.955,5.955,0,0,1-1.774.3,2.964,2.964,0,0,1-2.161-.717,2.572,2.572,0,0,1-.749-1.932A2.743,2.743,0,0,1,15.174,8.41a3.666,3.666,0,0,1,1.475.26l-.252.962A2.946,2.946,0,0,0,15.159,9.4,1.609,1.609,0,0,0,13.4,11.123a1.6,1.6,0,0,0,1.672,1.743,1.608,1.608,0,0,0,.591-.078V11.675h-.82v-.938h1.979v2.8Z" fill="#919eab"/>
      <path id="Path_498" data-name="Path 498" d="M7.753,11.139c0,1.041.489,1.774,1.293,1.774s1.277-.773,1.277-1.806c0-.954-.457-1.775-1.285-1.775C8.226,9.333,7.753,10.106,7.753,11.139Z" fill="#919eab"/>
    </g>
  </g>
</svg>
